module github.com/Zainal21/my-ewallet

go 1.21.1

require (
	github.com/fsnotify/fsnotify v1.7.0
	github.com/go-sql-driver/mysql v1.7.1
	github.com/gofiber/fiber/v2 v2.49.2
	github.com/google/uuid v1.4.0
	github.com/jmoiron/sqlx v1.3.5
	github.com/pressly/goose/v3 v3.15.1
	github.com/rabbitmq/amqp091-go v1.9.0
	github.com/sirupsen/logrus v1.9.3
	github.com/sony/gobreaker v0.5.0
	github.com/spf13/cobra v1.8.0
	github.com/spf13/viper v1.17.0
)

require (
	github.com/cespare/xxhash/v2 v2.2.0 // indirect
	github.com/dgryski/go-rendezvous v0.0.0-20200823014737-9f7001d12a5f // indirect
	github.com/midtrans/midtrans-go v1.3.7 // indirect
	github.com/spf13/cast v1.6.0 // indirect
)

require (
	github.com/andybalholm/brotli v1.0.5 // indirect
	github.com/google/go-cmp v0.6.0 // indirect
	github.com/hashicorp/hcl v1.0.0 // indirect
	github.com/inconshreveable/mousetrap v1.1.0 // indirect
	github.com/klauspost/compress v1.17.0 // indirect
	github.com/magiconair/properties v1.8.7 // indirect
	github.com/mattn/go-colorable v0.1.13 // indirect
	github.com/mattn/go-isatty v0.0.20 // indirect
	github.com/mattn/go-runewidth v0.0.15 // indirect
	github.com/mitchellh/mapstructure v1.5.0 // indirect
	github.com/pelletier/go-toml/v2 v2.1.1 // indirect
	github.com/redis/go-redis/v9 v9.4.0
	github.com/rivo/uniseg v0.2.0 // indirect
	github.com/rogpeppe/go-internal v1.11.0 // indirect
	github.com/sagikazarmark/locafero v0.3.0 // indirect
	github.com/sagikazarmark/slog-shim v0.1.0 // indirect
	github.com/sourcegraph/conc v0.3.0 // indirect
	github.com/spf13/afero v1.11.0 // indirect
	github.com/spf13/pflag v1.0.5 // indirect
	github.com/subosito/gotenv v1.6.0 // indirect
	github.com/valyala/bytebufferpool v1.0.0 // indirect
	github.com/valyala/fasthttp v1.49.0 // indirect
	github.com/valyala/tcplisten v1.0.0 // indirect
	go.uber.org/multierr v1.11.0 // indirect
	golang.org/x/crypto v0.18.0
	golang.org/x/exp v0.0.0-20230905200255-921286631fa9 // indirect
	golang.org/x/sys v0.16.0 // indirect
	golang.org/x/text v0.14.0 // indirect
	golang.org/x/tools v0.16.0 // indirect
	gopkg.in/check.v1 v1.0.0-20201130134442-10cb98267c6c // indirect
	gopkg.in/ini.v1 v1.67.0 // indirect
	gopkg.in/yaml.v3 v3.0.1 // indirect
)
